<svg xmlns="http://www.w3.org/2000/svg" width="15" height="15">
  <g transform="translate(-3 -3)" fill="none" fill-rule="evenodd">
    <rect stroke="#2A2A2A" stroke-width="1.5" x="4.75" y="4.75" width="10.5" height="10.5" rx="3"/>
    <rect stroke="#2A2A2A" stroke-width="1.5" x="7.75" y="7.75" width="4.5" height="4.5" rx="2.25"/>
    <rect fill="#2A2A2A" x="12" y="6" width="2" height="2" rx="1"/>
  </g>
</svg>
