<?xml version='1.0' encoding='utf-8'?>
<svg width="20px" height="20px" viewBox="0 0 20 20" version="1.1" xmlns="http://www.w3.org/2000/svg" xmlns:xlink="http://www.w3.org/1999/xlink">
    <g id="Page-1" stroke="none" stroke-width="1" fill="none" fill-rule="evenodd">
        <g id="Posts-Planned" transform="translate(-836.000000, -31.000000)">
            <g id="Calendar" transform="translate(180.000000, -16.000000)">
                <g id="Today" transform="translate(18.000000, 32.000000)">
                    <g id="Stat" transform="translate(583.000000, 15.000000)">
                        <g id="Retweets" transform="translate(55.000000, 0.000000)">
                            <circle id="Oval-3" fill="#CDCCCC" cx="10" cy="10" r="10"></circle>
                            <rect id="Rectangle-13" fill="#CDCCCC" x="6" y="7" width="8" height="6"></rect>
                            <path d="M4.50265045,9.08842926 L2.67422333,10.9168564 L1.26000977,9.50264282 L5.50265045,5.26000214 L9.74529114,9.50264282 L8.33107758,10.9168564 L6.50265045,9.08842926 L6.50265045,11.5072453 C6.50265045,12.0469784 6.95147303,12.5026428 7.50512375,12.5026428 L10.5026505,12.5026428 L12.5026505,14.5026428 L6.51118065,14.5026428 C5.40190005,14.5026428 4.50265045,13.6024667 4.50265045,12.5106258 L4.50265045,9.08842926 Z M15.5026505,10.9168564 L17.3310776,9.08842926 L18.7452911,10.5026428 L14.5026505,14.7452835 L10.2600098,10.5026428 L11.6742233,9.08842926 L13.5026505,10.9168564 L13.5026505,8.49804039 C13.5026505,7.95830722 13.0538279,7.50264282 12.5001772,7.50264282 L9.50265045,7.50264282 L7.50265045,5.50264282 L13.4941203,5.50264282 C14.6034009,5.50264282 15.5026505,6.40281899 15.5026505,7.49465984 L15.5026505,10.9168564 Z" id="Combined-Shape" fill="#FFFFFF"></path>
                        </g>
                    </g>
                </g>
            </g>
        </g>
    </g>
</svg>
